dump.vcd
$date
	Tue Dec 28 06:42:20 2021
$end
$version
	Icarus Verilog
$end
$timescale
	1ps
$end
$scope module run $end
$var reg 1 ! clk $end
$scope module soc $end
$var wire 1 ! clk $end
$var wire 1 " regfile_w_enable $end
$var wire 32 # wb_val [31:0] $end
$var wire 5 $ wb_reg [4:0] $end
$var wire 32 % wb_ex_bypass_val [31:0] $end
$var wire 5 & wb_ex_bypass_reg [4:0] $end
$var wire 1 ' use_mem_output $end
$var wire 5 ( rs2_reg [4:0] $end
$var wire 5 ) rs1_reg [4:0] $end
$var wire 32 * regfile_w_val [31:0] $end
$var wire 5 + regfile_w_reg [4:0] $end
$var wire 32 , regfile_r2_val [31:0] $end
$var wire 5 - regfile_r2_reg [4:0] $end
$var wire 32 . regfile_r1_val [31:0] $end
$var wire 5 / regfile_r1_reg [4:0] $end
$var wire 5 0 rd_ex [4:0] $end
$var wire 5 1 rd [4:0] $end
$var wire 32 2 ram_w_val [31:0] $end
$var wire 1 3 ram_w_enable $end
$var wire 4 4 ram_w_byte_en [3:0] $end
$var wire 30 5 ram_w_addr [29:0] $end
$var wire 32 6 ram_r2_val [31:0] $end
$var wire 30 7 ram_r2_addr [29:0] $end
$var wire 32 8 ram_r1_val [31:0] $end
$var wire 30 9 ram_r1_addr [29:0] $end
$var wire 32 : pc_ex [31:0] $end
$var wire 32 ; pc_de [31:0] $end
$var wire 32 < mem_ex_bypass_val [31:0] $end
$var wire 5 = mem_ex_bypass_reg [4:0] $end
$var wire 4 > mem2wb_insn_type [3:0] $end
$var wire 4 ? insn_type_decode2exec [3:0] $end
$var wire 4 @ insn_sub_type_decode2exec [3:0] $end
$var wire 32 A insn [31:0] $end
$var wire 32 B imm [31:0] $end
$var wire 1 C from_ex_to_decode_stall $end
$var wire 1 D from_decode_to_fetch_stall $end
$var wire 1 E ex_use_imm $end
$var wire 32 F ex_store_val [31:0] $end
$var wire 1 G ex_pc_valid $end
$var wire 32 H ex_pc_offset [31:0] $end
$var wire 32 I ex_pc_base [31:0] $end
$var wire 32 J ex2mem_val [31:0] $end
$var wire 4 K ex2mem_insn_type [3:0] $end
$var wire 4 L ex2mem_insn_sub_type [3:0] $end
$var wire 4 M alu_code [3:0] $end
$scope module decoder $end
$var wire 1 ! clk $end
$var wire 1 D ex_stall_to_fetch $end
$var wire 5 N w_rd [4:0] $end
$var wire 32 O u_imm [31:0] $end
$var wire 32 P shamt [31:0] $end
$var wire 32 Q s_imm [31:0] $end
$var wire 32 R pc [31:0] $end
$var wire 7 S opcode [6:0] $end
$var wire 32 T j_imm [31:0] $end
$var wire 32 U insn [31:0] $end
$var wire 32 V i_imm [31:0] $end
$var wire 7 W funct7 [6:0] $end
$var wire 3 X funct3 [2:0] $end
$var wire 1 C ex_stall $end
$var wire 1 Y ecall_ebreak_field $end
$var wire 32 Z b_imm [31:0] $end
$var reg 4 [ alu_code [3:0] $end
$var reg 1 E ex_use_imm $end
$var reg 32 \ imm [31:0] $end
$var reg 4 ] insn_sub_type [3:0] $end
$var reg 4 ^ insn_type [3:0] $end
$var reg 32 _ pc_de [31:0] $end
$var reg 5 ` rd [4:0] $end
$var reg 5 a rs1 [4:0] $end
$var reg 5 b rs1_reg [4:0] $end
$var reg 5 c rs2 [4:0] $end
$var reg 5 d rs2_reg [4:0] $end
$upscope $end
$scope module exec $end
$var wire 4 e alu_code [3:0] $end
$var wire 1 ! clk $end
$var wire 5 f de_rd [4:0] $end
$var wire 1 C ex_stall $end
$var wire 32 g imm [31:0] $end
$var wire 4 h insn_sub_type [3:0] $end
$var wire 4 i insn_type [3:0] $end
$var wire 32 j pc_de [31:0] $end
$var wire 5 k rs1_reg [4:0] $end
$var wire 5 l rs2_reg [4:0] $end
$var wire 1 E use_imm $end
$var wire 32 m w_alu_res [31:0] $end
$var wire 32 n rs2_regfile_val [31:0] $end
$var wire 32 o rs2_actual [31:0] $end
$var wire 32 p rs1_regfile_val [31:0] $end
$var wire 32 q rs1_actual [31:0] $end
$var wire 1 r cmp_less $end
$var wire 1 s cmp_eq $end
$var wire 32 t bp_wb_val [31:0] $end
$var wire 5 u bp_wb_reg [4:0] $end
$var wire 32 v bp_mem_val [31:0] $end
$var wire 5 w bp_mem_reg [4:0] $end
$var wire 1 x awaited_pc_valid $end
$var wire 32 y alu_rs2 [31:0] $end
$var wire 32 z alu_rs1 [31:0] $end
$var reg 5 { ex_bp_reg [4:0] $end
$var reg 32 | ex_bp_val [31:0] $end
$var reg 4 } insn_sub_type_r [3:0] $end
$var reg 4 ~ insn_type_r [3:0] $end
$var reg 2 !" load_hazard [1:0] $end
$var reg 32 "" next_stage_val [31:0] $end
$var reg 32 #" next_valid_pc [31:0] $end
$var reg 32 $" pc_base [31:0] $end
$var reg 32 %" pc_offset [31:0] $end
$var reg 1 G pc_redirect_valid $end
$var reg 5 &" rd_ex [4:0] $end
$var reg 32 '" store_val [31:0] $end
$var reg 1 (" wait_for_pc $end
$scope module alu $end
$var wire 4 )" alu_code [3:0] $end
$var wire 32 *" op1 [31:0] $end
$var wire 32 +" op2 [31:0] $end
$var wire 32 ," res [31:0] $end
$var reg 32 -" xres [31:0] $end
$upscope $end
$upscope $end
$scope module fetch $end
$var wire 1 ! clk $end
$var wire 1 D ex_stall $end
$var wire 32 ." pc_ex_base [31:0] $end
$var wire 32 /" pc_ex_off [31:0] $end
$var wire 1 G pc_ex_valid $end
$var wire 32 0" mem_data [31:0] $end
$var wire 30 1" mem_addr [29:0] $end
$var reg 32 2" insn [31:0] $end
$var reg 32 3" pc [31:0] $end
$var reg 32 4" pc_de [31:0] $end
$var reg 32 5" pc_prev [31:0] $end
$var reg 32 6" prev_insn [31:0] $end
$upscope $end
$scope module mem $end
$var wire 1 ! clk $end
$var wire 32 7" ex_val [31:0] $end
$var wire 4 8" insn_sub_type [3:0] $end
$var wire 4 9" insn_type [3:0] $end
$var wire 32 :" store_val [31:0] $end
$var wire 5 ;" wb_reg [4:0] $end
$var reg 5 <" bp_mem_reg [4:0] $end
$var reg 32 =" bp_mem_val [31:0] $end
$var reg 4 >" insn_type_r [3:0] $end
$var reg 4 ?" ram_byte_en [3:0] $end
$var reg 30 @" ram_r_addr [29:0] $end
$var reg 30 A" ram_w_addr [29:0] $end
$var reg 32 B" ram_w_data [31:0] $end
$var reg 1 3 ram_w_en $end
$var reg 1 ' use_mem_output $end
$var reg 5 C" wb_reg_r [4:0] $end
$var reg 32 D" wb_val [31:0] $end
$upscope $end
$scope module ram $end
$var wire 4 E" byte_en [3:0] $end
$var wire 1 ! clk $end
$var wire 30 F" r1_addr [29:0] $end
$var wire 30 G" r2_addr [29:0] $end
$var wire 30 H" w_addr [29:0] $end
$var wire 1 3 w_enable $end
$var wire 32 I" w_val [31:0] $end
$var reg 32 J" r1_val [31:0] $end
$var reg 32 K" r2_val [31:0] $end
$upscope $end
$scope module regfile $end
$var wire 1 ! clk $end
$var wire 5 L" r1_reg_name [4:0] $end
$var wire 5 M" r2_reg_name [4:0] $end
$var wire 1 " w_enable $end
$var wire 32 N" w_reg_val [31:0] $end
$var wire 5 O" w_reg_name [4:0] $end
$var reg 32 P" r1_reg_val [31:0] $end
$var reg 32 Q" r2_reg_val [31:0] $end
$upscope $end
$scope module writeback $end
$var wire 1 ! clk $end
$var wire 32 R" ex_val [31:0] $end
$var wire 4 S" insn_type [3:0] $end
$var wire 32 T" mem_r_data [31:0] $end
$var wire 5 U" rd [4:0] $end
$var wire 1 " regfile_w_en $end
$var reg 32 V" regfile_w_data [31:0] $end
$var reg 5 W" regfile_w_reg [4:0] $end
$var reg 5 X" wb_bp_reg [4:0] $end
$var reg 32 Y" wb_bp_val [31:0] $end
$upscope $end
$upscope $end
$upscope $end
$enddefinitions $end
#0
$dumpvars
bx Y"
bx X"
bx W"
bx V"
bx U"
bx T"
bx S"
bx R"
bx Q"
bx P"
bx O"
bx N"
bx M"
bx L"
bx K"
bx J"
bx I"
bx H"
b1101 G"
bx F"
bx E"
bx D"
bx C"
bx B"
bx A"
bx @"
bx ?"
bx >"
bx ="
bx <"
bx ;"
bx :"
bx 9"
bx 8"
bx 7"
bx 6"
bx 5"
bx 4"
b110100 3"
bx 2"
b1101 1"
bx 0"
bx /"
bx ."
bx -"
bx ,"
bx +"
bx *"
bx )"
0("
bx '"
bx &"
bx %"
bx $"
bx #"
bx ""
b0 !"
bx ~
bx }
bx |
bx {
bx z
bx y
1x
bx w
bx v
bx u
bx t
xs
xr
bx q
bx p
bx o
bx n
bx m
bx l
bx k
bx j
bx i
bx h
bx g
bx f
bx e
bx d
bx c
bx b
bx a
bx `
bx _
bx ^
bx ]
bx \
bx [
bx0 Z
xY
bx X
bx W
bx V
bx U
bx0 T
bx S
bx R
bx Q
b0xxxxx P
bx000000000000 O
bx N
bx M
bx L
bx K
bx J
bx I
bx H
xG
bx F
xE
0D
0C
bx B
bx A
bx @
bx ?
bx >
bx =
bx <
bx ;
bx :
bx 9
bx 8
b1101 7
bx 6
bx 5
bx 4
x3
bx 2
bx 1
bx 0
bx /
bx .
bx -
bx ,
bx +
bx *
bx )
bx (
x'
bx &
bx %
bx $
bx #
1"
0!
$end
#5
b1110 7
b1110 1"
b1110 G"
b101001010110111 6
b101001010110111 0"
b101001010110111 K"
b111000 3"
b110100 5"
0x
b0 #"
03
0'
b0 <
b0 v
b0 ="
b0 =
b0 w
b0 <"
1!
#10
0!
#15
1Y
b1111 7
b1111 1"
b1111 G"
b0 P
b101000000000000 T
b100000000100 Z
b101 Q
b0 V
b101000000000000 O
b101 N
b0 W
b101 X
b110111 S
b111100 3"
b110100 ;
b110100 R
b110100 4"
b111000 5"
b101001010110111 A
b101001010110111 U
b101001010110111 2"
b100000010100000010000000100011 6
b100000010100000010000000100011 0"
b100000010100000010000000100011 K"
1!
#20
0!
#25
b0 ,
b0 n
b0 Q"
b0 .
b0 p
b0 P"
b0 z
b0 *"
0Y
b10000 7
b10000 1"
b10000 G"
b101 P
b10101000000100 T
b1000000000 Z
b1000000000 Q
b1000000101 V
b100000010100000010000000000000 O
b0 N
b10000 W
b10 X
b100011 S
b0 o
b0 q
b101000000000000 y
b101000000000000 +"
b10011 6
b10011 0"
b10011 K"
b1000000 3"
b111000 ;
b111000 R
b111000 4"
b111100 5"
b100000010100000010000000100011 A
b100000010100000010000000100011 U
b100000010100000010000000100011 2"
b101001010110111 6"
b0 -
b0 c
b0 M"
b0 /
b0 a
b0 L"
b0 (
b0 d
b0 l
b0 )
b0 b
b0 k
b110100 :
b110100 _
b110100 j
b101 1
b101 `
b101 f
b0 @
b0 ]
b0 h
b0 ?
b0 ^
b0 i
1E
b101000000000000 B
b101000000000000 \
b101000000000000 g
1!
#30
0!
#35
0r
0s
b1000000000 m
b1000000000 ,"
b1000000000 -"
bx ,
bx n
bx Q"
b101000000000000 o
b1000000000 y
b1000000000 +"
b10001 7
b10001 1"
b10001 G"
b0 P
b0 T
b0 Z
b0 Q
b0 V
b0 O
b0 W
b0 X
b10011 S
b101 0
b101 &"
b101 ;"
b101 {
b101000000000000 |
b101000000000000 J
b101000000000000 ""
b101000000000000 7"
0G
b0 L
b0 }
b0 8"
b0 K
b0 ~
b0 9"
b10 @
b10 ]
b10 h
b1 M
b1 [
b1 e
b1 )"
b1000000000 B
b1000000000 \
b1000000000 g
b0 1
b0 `
b0 f
b11 ?
b11 ^
b11 i
b101 -
b101 c
b101 M"
b101 (
b101 d
b101 l
b111000 :
b111000 _
b111000 j
b1000100 3"
b111100 ;
b111100 R
b111100 4"
b1000000 5"
b10011 A
b10011 U
b10011 2"
b100000010100000010000000100011 6"
1!
#40
0!
#45
b0 m
b0 ,"
b0 -"
b0 ,
b0 n
b0 Q"
b101000000000000 %
b101000000000000 t
b101000000000000 Y"
b101000000000000 *
b101000000000000 N"
b101000000000000 V"
b101 +
b101 O"
b101 W"
b101 &
b101 u
b101 X"
b10010 7
b10010 1"
b10010 G"
b0 y
b0 +"
b0 o
b1001000 3"
b1000000 ;
b1000000 R
b1000000 4"
b1000100 5"
b10011 6"
b0 -
b0 c
b0 M"
b0 (
b0 d
b0 l
b111100 :
b111100 _
b111100 j
b0 B
b0 \
b0 g
b0 ?
b0 ^
b0 i
b10 L
b10 }
b10 8"
b11 K
b11 ~
b11 9"
b0 0
b0 &"
b0 ;"
b101000000000000 F
b101000000000000 '"
b101000000000000 :"
b0 |
b0 {
b1000000000 J
b1000000000 ""
b1000000000 7"
b0 >
b0 >"
b0 S"
b101 $
b101 C"
b101 U"
b101000000000000 #
b101000000000000 D"
b101000000000000 R"
1!
#50
0!
#55
b1000000000 %
b1000000000 t
b1000000000 Y"
b1000000000 *
b1000000000 N"
b1000000000 V"
b0 +
b0 O"
b0 W"
b0 &
b0 u
b0 X"
b10011 7
b10011 1"
b10011 G"
b101000000000000 2
b101000000000000 B"
b101000000000000 I"
b1111 4
b1111 ?"
b1111 E"
b10000000 5
b10000000 A"
b10000000 H"
13
b11 >
b11 >"
b11 S"
b0 $
b0 C"
b0 U"
b1000000000 #
b1000000000 D"
b1000000000 R"
b0 J
b0 ""
b0 7"
b0 K
b0 ~
b0 9"
b1000000 :
b1000000 _
b1000000 j
b1001100 3"
b1000100 ;
b1000100 R
b1000100 4"
b1001000 5"
b100000000000000010001100000011 6
b100000000000000010001100000011 0"
b100000000000000010001100000011 K"
1!
#60
0!
#65
b0 %
b0 t
b0 Y"
b0 *
b0 N"
b0 V"
b10100 7
b10100 1"
b10100 G"
b10001000000000 T
b1000000110 Z
b1000000110 Q
b1000000000 V
b100000000000000010000000000000 O
b110 N
b10000 W
b10 X
b11 S
b1101111 6
b1101111 0"
b1101111 K"
b1010000 3"
b1001000 ;
b1001000 R
b1001000 4"
b1001100 5"
b100000000000000010001100000011 A
b100000000000000010001100000011 U
b100000000000000010001100000011 2"
b1000100 :
b1000100 _
b1000100 j
b0 >
b0 >"
b0 S"
03
b0 #
b0 D"
b0 R"
1!
#70
0!
#75
b1000000000 m
b1000000000 ,"
b1000000000 -"
1D
1C
b1000000000 y
b1000000000 +"
b10101 7
b10101 1"
b10101 G"
b0 T
b0 Z
b0 Q
b0 V
b0 O
b0 N
b0 W
b0 X
b1101111 S
b10 !"
b10 K
b10 ~
b10 9"
b100 @
b100 ]
b100 h
b1000000000 B
b1000000000 \
b1000000000 g
b110 1
b110 `
b110 f
b1001000 :
b1001000 _
b1001000 j
b1010100 3"
b1001100 ;
b1001100 R
b1001100 4"
b1010000 5"
b1101111 A
b1101111 U
b1101111 2"
b100000000000000010001100000011 6"
b10110101000001 6
b10110101000001 0"
b10110101000001 K"
b10 ?
b10 ^
b10 i
1!
#80
0!
#85
bx %
bx t
bx Y"
bx *
bx N"
bx V"
b10100 7
b10100 1"
b10100 G"
b1110011011010010111001000000000 6
b1110011011010010111001000000000 0"
b1110011011010010111001000000000 K"
b1010000 3"
b1 !"
b10 >
b10 >"
b10 S"
b0 9
b0 @"
b0 F"
1'
1!
#90
0!
#95
b1000110010011000100010101111111 %
b1000110010011000100010101111111 t
b1000110010011000100010101111111 Y"
b1000110010011000100010101111111 *
b1000110010011000100010101111111 N"
b1000110010011000100010101111111 V"
0D
0C
b0 !"
b10110101000001 6
b10110101000001 0"
b10110101000001 K"
b1000110010011000100010101111111 8
b1000110010011000100010101111111 J"
b1000110010011000100010101111111 T"
1!
#100
0!
#105
b0 m
b0 ,"
b0 -"
1D
1C
b10101 7
b10101 1"
b10101 G"
b10000000000000 T
b11010 Z
b11010 Q
b10000000000000 O
b11010 N
b10 X
b1000001 S
b1001100 z
b1001100 *"
b0 y
b0 +"
b1010100 3"
b1010000 ;
b1010000 R
b1010000 4"
b10110101000001 A
b10110101000001 U
b10110101000001 2"
b1101111 6"
b1001100 :
b1001100 _
b1001100 j
b0 1
b0 `
b0 f
b0 M
b0 [
b0 e
b0 )"
b1 ?
b1 ^
b1 i
b0 B
b0 \
b0 g
b100 L
b100 }
b100 8"
b110 0
b110 &"
b110 ;"
b1000000000 J
b1000000000 ""
b1000000000 7"
b10 !"
1!
#110
0!
#115
b110 +
b110 O"
b110 W"
b110 &
b110 u
b110 X"
b10100 7
b10100 1"
b10100 G"
b10000000 9
b10000000 @"
b10000000 F"
b110 $
b110 C"
b110 U"
b1000000000 #
b1000000000 D"
b1000000000 R"
b1 !"
b1010000 3"
b1110011011010010111001000000000 6
b1110011011010010111001000000000 0"
b1110011011010010111001000000000 K"
1!
#120
0!
#125
b101000000000000 %
b101000000000000 t
b101000000000000 Y"
b101000000000000 *
b101000000000000 N"
b101000000000000 V"
0D
0C
b10110101000001 6
b10110101000001 0"
b10110101000001 K"
b101000000000000 8
b101000000000000 J"
b101000000000000 T"
b0 !"
1!
#130
0!
#135
b1010000 z
b1010000 *"
b10101 7
b10101 1"
b10101 G"
b0 0
b0 &"
b0 ;"
1("
b1001100 #"
b1010000 J
b1010000 ""
b1010000 7"
1G
b1001100 I
b1001100 $"
b1001100 ."
b0 H
b0 %"
b0 /"
b1 K
b1 ~
b1 9"
b1010000 :
b1010000 _
b1010000 j
b1010100 3"
b10110101000001 6"
1!
#140
0!
#145
b1010000 %
b1010000 t
b1010000 Y"
b1010000 *
b1010000 N"
b1010000 V"
b0 +
b0 O"
b0 W"
b0 &
b0 u
b0 X"
b10011 7
b10011 1"
b10011 G"
b1110011011010010111001000000000 6
b1110011011010010111001000000000 0"
b1110011011010010111001000000000 K"
b1001100 3"
b1010100 5"
0G
b1 >
b1 >"
b1 S"
b0 $
b0 C"
b0 U"
b1010000 #
b1010000 D"
b1010000 R"
0'
1!
#150
0!
#155
b10100 7
b10100 1"
b10100 G"
b10110 P
b10010111011100110110 T
b11100100100 Z
b11100100100 Q
b11100110110 V
b1110011011010010111000000000000 O
b100 N
b111001 W
b111 X
b0 S
b1010000 3"
b1010100 ;
b1010100 R
b1010100 4"
b1001100 5"
b1110011011010010111001000000000 A
b1110011011010010111001000000000 U
b1110011011010010111001000000000 2"
b1101111 6
b1101111 0"
b1101111 K"
1!
#160
0!
#165
bx o
bx q
bx ,
bx n
bx Q"
bx .
bx p
bx P"
b10101 7
b10101 1"
b10101 G"
b0 P
b0 T
b0 Z
b0 Q
b0 V
b0 O
b0 N
b0 W
b0 X
b1101111 S
b1010100 z
b1010100 *"
b10110101000001 6
b10110101000001 0"
b10110101000001 K"
b1010100 3"
b1001100 ;
b1001100 R
b1001100 4"
b1010000 5"
b1101111 A
b1101111 U
b1101111 2"
b1110011011010010111001000000000 6"
b10110 -
b10110 c
b10110 M"
b10010 /
b10010 a
b10010 L"
b10110 (
b10110 d
b10110 l
b10010 )
b10010 b
b10010 k
b1010100 :
b1010100 _
b1010100 j
1!
#170
0!
#175
b0 ,
b0 n
b0 Q"
b0 .
b0 p
b0 P"
b0 o
b0 q
b1001100 z
b1001100 *"
b10110 7
b10110 1"
b10110 G"
b10000000000000 T
b11010 Z
b11010 Q
b10000000000000 O
b11010 N
b10 X
b1000001 S
b0 -
b0 c
b0 M"
b0 /
b0 a
b0 L"
b0 (
b0 d
b0 l
b0 )
b0 b
b0 k
1x
b1001100 :
b1001100 _
b1001100 j
b1011000 3"
b1010000 ;
b1010000 R
b1010000 4"
b1010100 5"
b10110101000001 A
b10110101000001 U
b10110101000001 2"
b1101111 6"
b1110011011010010111001000000000 6
b1110011011010010111001000000000 0"
b1110011011010010111001000000000 K"
1!
#180
0!
#185
b10111 7
b10111 1"
b10111 G"
b10110 P
b10010111011100110110 T
b11100100100 Z
b11100100100 Q
b11100110110 V
b1110011011010010111000000000000 O
b100 N
b111001 W
b111 X
b0 S
b1010000 z
b1010000 *"
b1000000000111011001100011 6
b1000000000111011001100011 0"
b1000000000111011001100011 K"
b1011100 3"
b1010100 ;
b1010100 R
b1010100 4"
b1011000 5"
b1110011011010010111001000000000 A
b1110011011010010111001000000000 U
b1110011011010010111001000000000 2"
b10110101000001 6"
b1010000 :
b1010000 _
b1010000 j
0x
b0 #"
0("
1G
1!
#190
0!
#195
bx o
bx q
bx ,
bx n
bx Q"
bx .
bx p
bx P"
b1010100 z
b1010100 *"
b10011 7
b10011 1"
b10011 G"
b10000 P
b111000000010000 T
b1100 Z
b1100 Q
b10000 V
b1000000000111000000000000 O
b1100 N
b0 W
b1100011 S
1("
b1010000 #"
b1010100 J
b1010100 ""
b1010100 7"
b1010000 I
b1010000 $"
b1010000 ."
b10110 -
b10110 c
b10110 M"
b10010 /
b10010 a
b10010 L"
b10110 (
b10110 d
b10110 l
b10010 )
b10010 b
b10010 k
b1010100 :
b1010100 _
b1010100 j
b1001100 3"
b1011000 ;
b1011000 R
b1011000 4"
b1011100 5"
b1000000000111011001100011 A
b1000000000111011001100011 U
b1000000000111011001100011 2"
b1110011011010010111001000000000 6"
b100011 6
b100011 0"
b100011 K"
1!
#200
0!
#205
b0 .
b0 p
b0 P"
b1010100 %
b1010100 t
b1010100 Y"
b1010100 *
b1010100 N"
b1010100 V"
b10100 7
b10100 1"
b10100 G"
b0 P
b0 T
b0 Z
b0 Q
b0 V
b0 O
b0 N
b0 X
b100011 S
b0 q
b1011000 z
b1011000 *"
b1100 y
b1100 +"
b1101111 6
b1101111 0"
b1101111 K"
b1010000 3"
b1011100 ;
b1011100 R
b1011100 4"
b1001100 5"
b100011 A
b100011 U
b100011 2"
b1000000000111011001100011 6"
b10000 -
b10000 c
b10000 M"
b0 /
b0 a
b0 L"
b10000 (
b10000 d
b10000 l
b0 )
b0 b
b0 k
b1011000 :
b1011000 _
b1011000 j
b11 @
b11 ]
b11 h
b111 M
b111 [
b111 e
b111 )"
b1100 B
b1100 \
b1100 g
0G
b1010100 #
b1010100 D"
b1010100 R"
1!
#210
0!
#215
b0 ,
b0 n
b0 Q"
b0 y
b0 +"
b0 o
b0 z
b0 *"
b10101 7
b10101 1"
b10101 G"
b1101111 S
b11 L
b11 }
b11 8"
b0 @
b0 ]
b0 h
b1 M
b1 [
b1 e
b1 )"
b0 B
b0 \
b0 g
b11 ?
b11 ^
b11 i
b0 -
b0 c
b0 M"
b0 (
b0 d
b0 l
b1011100 :
b1011100 _
b1011100 j
b1010100 3"
b1001100 ;
b1001100 R
b1001100 4"
b1010000 5"
b1101111 A
b1101111 U
b1101111 2"
b100011 6"
b10110101000001 6
b10110101000001 0"
b10110101000001 K"
1!
#220
0!
#225
b10110 7
b10110 1"
b10110 G"
b10000000000000 T
b11010 Z
b11010 Q
b10000000000000 O
b11010 N
b10 X
b1000001 S
b1001100 z
b1001100 *"
b1110011011010010111001000000000 6
b1110011011010010111001000000000 0"
b1110011011010010111001000000000 K"
b1011000 3"
b1010000 ;
b1010000 R
b1010000 4"
b1010100 5"
b10110101000001 A
b10110101000001 U
b10110101000001 2"
b1101111 6"
b1001100 :
b1001100 _
b1001100 j
b0 M
b0 [
b0 e
b0 )"
b100 @
b100 ]
b100 h
b1 ?
b1 ^
b1 i
b0 L
b0 }
b0 8"
b11 K
b11 ~
b11 9"
1!
#230
0!
#235
b1010000 z
b1010000 *"
b10111 7
b10111 1"
b10111 G"
b10110 P
b10010111011100110110 T
b11100100100 Z
b11100100100 Q
b11100110110 V
b1110011011010010111000000000000 O
b100 N
b111001 W
b111 X
b0 S
b1 4
b1 ?"
b1 E"
b10101 5
b10101 A"
b10101 H"
13
b11 >
b11 >"
b11 S"
b100 L
b100 }
b100 8"
b1 K
b1 ~
b1 9"
1x
b1010000 :
b1010000 _
b1010000 j
b1011100 3"
b1010100 ;
b1010100 R
b1010100 4"
b1011000 5"
b1110011011010010111001000000000 A
b1110011011010010111001000000000 U
b1110011011010010111001000000000 2"
b10110101000001 6"
b1000000000111011001100011 6
b1000000000111011001100011 0"
b1000000000111011001100011 K"
1!
#240
0!
#245
bx o
bx q
bx ,
bx n
bx Q"
bx .
bx p
bx P"
b11000 7
b11000 1"
b11000 G"
b10000 P
b111000000010000 T
b1100 Z
b1100 Q
b10000 V
b1000000000111000000000000 O
b1100 N
b0 W
b1100011 S
b1010100 z
b1010100 *"
b100011 6
b100011 0"
b100011 K"
b1100000 3"
b1011000 ;
b1011000 R
b1011000 4"
b1011100 5"
b1000000000111011001100011 A
b1000000000111011001100011 U
b1000000000111011001100011 2"
b1110011011010010111001000000000 6"
b10110 -
b10110 c
b10110 M"
b10010 /
b10010 a
b10010 L"
b10110 (
b10110 d
b10110 l
b10010 )
b10010 b
b10010 k
b1010100 :
b1010100 _
b1010100 j
0x
b0 #"
0("
1G
b1 >
b1 >"
b1 S"
03
1!
#250
0!
#255
b0 .
b0 p
b0 P"
b1100 y
b1100 +"
b0 q
b1011000 z
b1011000 *"
b10100 7
b10100 1"
b10100 G"
b0 P
b0 T
b0 Z
b0 Q
b0 V
b0 O
b0 N
b0 X
b100011 S
1("
b1010100 #"
b1011000 J
b1011000 ""
b1011000 7"
b1010100 I
b1010100 $"
b1010100 ."
b11 @
b11 ]
b11 h
b111 M
b111 [
b111 e
b111 )"
b1100 B
b1100 \
b1100 g
b10000 -
b10000 c
b10000 M"
b0 /
b0 a
b0 L"
b10000 (
b10000 d
b10000 l
b0 )
b0 b
b0 k
b1011000 :
b1011000 _
b1011000 j
b1010000 3"
b1011100 ;
b1011100 R
b1011100 4"
b1100000 5"
b100011 A
b100011 U
b100011 2"
b1000000000111011001100011 6"
b110011011101100111001000000101 6
b110011011101100111001000000101 0"
b110011011101100111001000000101 K"
1!
#260
0!
#265
b0 ,
b0 n
b0 Q"
b1011000 %
b1011000 t
b1011000 Y"
b1011000 *
b1011000 N"
b1011000 V"
b10101 7
b10101 1"
b10101 G"
b10111 P
b1100111101100110110 T
b1100100100 Z
b1100100100 Q
b1100110111 V
b110011011101100111000000000000 O
b100 N
b11001 W
b111 X
b101 S
b0 o
b0 y
b0 +"
b0 z
b0 *"
b10110101000001 6
b10110101000001 0"
b10110101000001 K"
b1010100 3"
b1100000 ;
b1100000 R
b1100000 4"
b1010000 5"
b110011011101100111001000000101 A
b110011011101100111001000000101 U
b110011011101100111001000000101 2"
b100011 6"
b0 -
b0 c
b0 M"
b0 (
b0 d
b0 l
b1011100 :
b1011100 _
b1011100 j
b0 @
b0 ]
b0 h
b1 M
b1 [
b1 e
b1 )"
b0 B
b0 \
b0 g
b11 ?
b11 ^
b11 i
b11 L
b11 }
b11 8"
0G
b1011000 #
b1011000 D"
b1011000 R"
1!
#270
0!
#275
xr
xs
bx m
bx ,"
bx -"
bx z
bx *"
bx o
bx q
bx ,
bx n
bx Q"
bx .
bx p
bx P"
b10110 7
b10110 1"
b10110 G"
b0 P
b10000000000000 T
b11010 Z
b11010 Q
b0 V
b10000000000000 O
b11010 N
b0 W
b10 X
b1000001 S
b0 L
b0 }
b0 8"
b11 K
b11 ~
b11 9"
b10111 -
b10111 c
b10111 M"
b1100 /
b1100 a
b1100 L"
b10111 (
b10111 d
b10111 l
b1100 )
b1100 b
b1100 k
b1100000 :
b1100000 _
b1100000 j
b1011000 3"
b1010000 ;
b1010000 R
b1010000 4"
b1010100 5"
b10110101000001 A
b10110101000001 U
b10110101000001 2"
b110011011101100111001000000101 6"
b1110011011010010111001000000000 6
b1110011011010010111001000000000 0"
b1110011011010010111001000000000 K"
1!
#280
0!
#285
0r
0s
b0 m
b0 ,"
b0 -"
b0 ,
b0 n
b0 Q"
b0 .
b0 p
b0 P"
b0 z
b0 *"
b10111 7
b10111 1"
b10111 G"
b10110 P
b10010111011100110110 T
b11100100100 Z
b11100100100 Q
b11100110110 V
b1110011011010010111000000000000 O
b100 N
b111001 W
b111 X
b0 S
b0 o
b0 q
b1000000000111011001100011 6
b1000000000111011001100011 0"
b1000000000111011001100011 K"
b1011100 3"
b1010100 ;
b1010100 R
b1010100 4"
b1011000 5"
b1110011011010010111001000000000 A
b1110011011010010111001000000000 U
b1110011011010010111001000000000 2"
b10110101000001 6"
b0 -
b0 c
b0 M"
b0 /
b0 a
b0 L"
b0 (
b0 d
b0 l
b0 )
b0 b
b0 k
b1010000 :
b1010000 _
b1010000 j
b11 >
b11 >"
b11 S"
b10110 5
b10110 A"
b10110 H"
13
1!
#290
0!
#295
xr
xs
bx m
bx ,"
bx -"
bx z
bx *"
bx o
bx q
bx ,
bx n
bx Q"
bx .
bx p
bx P"
b11000 7
b11000 1"
b11000 G"
b10000 P
b111000000010000 T
b1100 Z
b1100 Q
b10000 V
b1000000000111000000000000 O
b1100 N
b0 W
b1100011 S
b10110 -
b10110 c
b10110 M"
b10010 /
b10010 a
b10010 L"
b10110 (
b10110 d
b10110 l
b10010 )
b10010 b
b10010 k
1x
b1010100 :
b1010100 _
b1010100 j
b1100000 3"
b1011000 ;
b1011000 R
b1011000 4"
b1011100 5"
b1000000000111011001100011 A
b1000000000111011001100011 U
b1000000000111011001100011 2"
b1110011011010010111001000000000 6"
b100011 6
b100011 0"
b100011 K"
1!
#300
0!
#305
0r
0s
b0 .
b0 p
b0 P"
b0 m
b0 ,"
b0 -"
b11001 7
b11001 1"
b11001 G"
b0 P
b0 T
b0 Z
b0 Q
b0 V
b0 O
b0 N
b0 X
b100011 S
b0 q
b1100 y
b1100 +"
b1011000 z
b1011000 *"
b110011011101100111001000000101 6
b110011011101100111001000000101 0"
b110011011101100111001000000101 K"
b1100100 3"
b1011100 ;
b1011100 R
b1011100 4"
b1100000 5"
b100011 A
b100011 U
b100011 2"
b1000000000111011001100011 6"
b10000 -
b10000 c
b10000 M"
b0 /
b0 a
b0 L"
b10000 (
b10000 d
b10000 l
b0 )
b0 b
b0 k
b1011000 :
b1011000 _
b1011000 j
b11 @
b11 ]
b11 h
b111 M
b111 [
b111 e
b111 )"
b1100 B
b1100 \
b1100 g
b1 ?
b1 ^
b1 i
0x
b0 #"
0("
bx F
bx '"
bx :"
bx J
bx ""
bx 7"
1!
#310
0!
