dump.vcd
$date
	Tue Dec 28 18:16:59 2021
$end
$version
	Icarus Verilog
$end
$timescale
	1ps
$end
$scope module run $end
$var reg 1 ! clk $end
$scope module soc $end
$var wire 1 ! clk $end
$var wire 1 " regfile_w_enable $end
$var wire 32 # wb_val [31:0] $end
$var wire 5 $ wb_reg [4:0] $end
$var wire 32 % wb_ex_bypass_val [31:0] $end
$var wire 5 & wb_ex_bypass_reg [4:0] $end
$var wire 1 ' use_mem_output $end
$var wire 5 ( rs2_reg [4:0] $end
$var wire 5 ) rs1_reg [4:0] $end
$var wire 32 * regfile_w_val [31:0] $end
$var wire 5 + regfile_w_reg [4:0] $end
$var wire 32 , regfile_r2_val [31:0] $end
$var wire 5 - regfile_r2_reg [4:0] $end
$var wire 32 . regfile_r1_val [31:0] $end
$var wire 5 / regfile_r1_reg [4:0] $end
$var wire 5 0 rd_ex [4:0] $end
$var wire 5 1 rd [4:0] $end
$var wire 32 2 ram_w_val [31:0] $end
$var wire 1 3 ram_w_enable $end
$var wire 4 4 ram_w_byte_en [3:0] $end
$var wire 30 5 ram_w_addr [29:0] $end
$var wire 32 6 ram_r2_val [31:0] $end
$var wire 30 7 ram_r2_addr [29:0] $end
$var wire 32 8 ram_r1_val [31:0] $end
$var wire 30 9 ram_r1_addr [29:0] $end
$var wire 32 : pc_ex [31:0] $end
$var wire 32 ; pc_de [31:0] $end
$var wire 32 < mem_ex_bypass_val [31:0] $end
$var wire 5 = mem_ex_bypass_reg [4:0] $end
$var wire 4 > mem2wb_insn_type [3:0] $end
$var wire 4 ? insn_type_decode2exec [3:0] $end
$var wire 4 @ insn_sub_type_decode2exec [3:0] $end
$var wire 32 A insn [31:0] $end
$var wire 32 B imm [31:0] $end
$var wire 1 C from_ex_to_decode_stall $end
$var wire 1 D from_decode_to_fetch_stall $end
$var wire 1 E ex_use_imm $end
$var wire 32 F ex_store_val [31:0] $end
$var wire 1 G ex_pc_valid $end
$var wire 32 H ex_pc_offset [31:0] $end
$var wire 32 I ex_pc_base [31:0] $end
$var wire 32 J ex2mem_val [31:0] $end
$var wire 4 K ex2mem_insn_type [3:0] $end
$var wire 4 L ex2mem_insn_sub_type [3:0] $end
$var wire 4 M alu_code [3:0] $end
$scope module decoder $end
$var wire 1 ! clk $end
$var wire 1 D ex_stall_to_fetch $end
$var wire 5 N w_rd [4:0] $end
$var wire 32 O u_imm [31:0] $end
$var wire 32 P shamt [31:0] $end
$var wire 32 Q s_imm [31:0] $end
$var wire 32 R pc [31:0] $end
$var wire 7 S opcode [6:0] $end
$var wire 32 T j_imm [31:0] $end
$var wire 32 U insn [31:0] $end
$var wire 32 V i_imm [31:0] $end
$var wire 7 W funct7 [6:0] $end
$var wire 3 X funct3 [2:0] $end
$var wire 1 C ex_stall $end
$var wire 1 Y ecall_ebreak_field $end
$var wire 32 Z b_imm [31:0] $end
$var reg 4 [ alu_code [3:0] $end
$var reg 1 E ex_use_imm $end
$var reg 32 \ imm [31:0] $end
$var reg 4 ] insn_sub_type [3:0] $end
$var reg 4 ^ insn_type [3:0] $end
$var reg 32 _ pc_de [31:0] $end
$var reg 5 ` rd [4:0] $end
$var reg 5 a rs1 [4:0] $end
$var reg 5 b rs1_reg [4:0] $end
$var reg 5 c rs2 [4:0] $end
$var reg 5 d rs2_reg [4:0] $end
$upscope $end
$scope module exec $end
$var wire 4 e alu_code [3:0] $end
$var wire 1 ! clk $end
$var wire 5 f de_rd [4:0] $end
$var wire 1 C ex_stall $end
$var wire 32 g imm [31:0] $end
$var wire 4 h insn_sub_type [3:0] $end
$var wire 4 i insn_type [3:0] $end
$var wire 32 j pc_de [31:0] $end
$var wire 5 k rs1_reg [4:0] $end
$var wire 5 l rs2_reg [4:0] $end
$var wire 1 E use_imm $end
$var wire 32 m w_alu_res [31:0] $end
$var wire 32 n rs2_regfile_val [31:0] $end
$var wire 32 o rs2_actual [31:0] $end
$var wire 32 p rs1_regfile_val [31:0] $end
$var wire 32 q rs1_actual [31:0] $end
$var wire 1 r cmp_less $end
$var wire 1 s cmp_eq $end
$var wire 32 t bp_wb_val [31:0] $end
$var wire 5 u bp_wb_reg [4:0] $end
$var wire 32 v bp_mem_val [31:0] $end
$var wire 5 w bp_mem_reg [4:0] $end
$var wire 1 x awaited_pc_valid $end
$var wire 32 y alu_rs2 [31:0] $end
$var wire 32 z alu_rs1 [31:0] $end
$var reg 5 { ex_bp_reg [4:0] $end
$var reg 32 | ex_bp_val [31:0] $end
$var reg 4 } insn_sub_type_r [3:0] $end
$var reg 4 ~ insn_type_r [3:0] $end
$var reg 2 !" load_hazard [1:0] $end
$var reg 32 "" next_stage_val [31:0] $end
$var reg 32 #" next_valid_pc [31:0] $end
$var reg 32 $" pc_base [31:0] $end
$var reg 32 %" pc_offset [31:0] $end
$var reg 1 G pc_redirect_valid $end
$var reg 5 &" rd_ex [4:0] $end
$var reg 32 '" store_val [31:0] $end
$var reg 1 (" wait_for_pc $end
$scope module alu $end
$var wire 4 )" alu_code [3:0] $end
$var wire 32 *" op1 [31:0] $end
$var wire 32 +" op2 [31:0] $end
$var wire 32 ," res [31:0] $end
$var reg 32 -" xres [31:0] $end
$upscope $end
$upscope $end
$scope module fetch $end
$var wire 1 ! clk $end
$var wire 1 D ex_stall $end
$var wire 32 ." insn [31:0] $end
$var wire 32 /" pc_ex_base [31:0] $end
$var wire 32 0" pc_ex_off [31:0] $end
$var wire 1 G pc_ex_valid $end
$var wire 32 1" mem_data [31:0] $end
$var wire 30 2" mem_addr [29:0] $end
$var reg 32 3" pc [31:0] $end
$var reg 32 4" pc_de [31:0] $end
$upscope $end
$scope module mem $end
$var wire 1 ! clk $end
$var wire 32 5" ex_val [31:0] $end
$var wire 4 6" insn_sub_type [3:0] $end
$var wire 4 7" insn_type [3:0] $end
$var wire 32 8" store_val [31:0] $end
$var wire 5 9" wb_reg [4:0] $end
$var reg 5 :" bp_mem_reg [4:0] $end
$var reg 32 ;" bp_mem_val [31:0] $end
$var reg 4 <" insn_type_r [3:0] $end
$var reg 4 =" ram_byte_en [3:0] $end
$var reg 30 >" ram_r_addr [29:0] $end
$var reg 30 ?" ram_w_addr [29:0] $end
$var reg 32 @" ram_w_data [31:0] $end
$var reg 1 3 ram_w_en $end
$var reg 1 ' use_mem_output $end
$var reg 5 A" wb_reg_r [4:0] $end
$var reg 32 B" wb_val [31:0] $end
$upscope $end
$scope module ram $end
$var wire 4 C" byte_en [3:0] $end
$var wire 1 ! clk $end
$var wire 30 D" r1_addr [29:0] $end
$var wire 30 E" r2_addr [29:0] $end
$var wire 30 F" w_addr [29:0] $end
$var wire 1 3 w_enable $end
$var wire 32 G" w_val [31:0] $end
$var reg 32 H" r1_val [31:0] $end
$var reg 32 I" r2_val [31:0] $end
$upscope $end
$scope module regfile $end
$var wire 1 ! clk $end
$var wire 5 J" r1_reg_name [4:0] $end
$var wire 5 K" r2_reg_name [4:0] $end
$var wire 1 " w_enable $end
$var wire 32 L" w_reg_val [31:0] $end
$var wire 5 M" w_reg_name [4:0] $end
$var reg 32 N" r1_reg_val [31:0] $end
$var reg 32 O" r2_reg_val [31:0] $end
$upscope $end
$scope module writeback $end
$var wire 1 ! clk $end
$var wire 32 P" ex_val [31:0] $end
$var wire 4 Q" insn_type [3:0] $end
$var wire 32 R" mem_r_data [31:0] $end
$var wire 5 S" rd [4:0] $end
$var wire 1 " regfile_w_en $end
$var reg 32 T" regfile_w_data [31:0] $end
$var reg 5 U" regfile_w_reg [4:0] $end
$var reg 5 V" wb_bp_reg [4:0] $end
$var reg 32 W" wb_bp_val [31:0] $end
$upscope $end
$upscope $end
$upscope $end
$enddefinitions $end
#0
$dumpvars
bx W"
bx V"
bx U"
bx T"
bx S"
bx R"
bx Q"
bx P"
bx O"
bx N"
bx M"
bx L"
bx K"
bx J"
bx I"
bx H"
bx G"
bx F"
b1101 E"
bx D"
bx C"
bx B"
bx A"
bx @"
bx ?"
bx >"
bx ="
bx <"
bx ;"
bx :"
bx 9"
bx 8"
bx 7"
bx 6"
bx 5"
bx 4"
b110100 3"
b1101 2"
bx 1"
bx 0"
bx /"
bx ."
bx -"
bx ,"
bx +"
bx *"
bx )"
0("
bx '"
bx &"
bx %"
bx $"
bx #"
bx ""
b0 !"
bx ~
bx }
bx |
bx {
bx z
bx y
1x
bx w
bx v
bx u
bx t
xs
xr
bx q
bx p
bx o
bx n
bx m
bx l
bx k
bx j
bx i
bx h
bx g
bx f
bx e
bx d
bx c
bx b
bx a
bx `
bx _
bx ^
bx ]
bx \
bx [
bx0 Z
xY
bx X
bx W
bx V
bx U
bx0 T
bx S
bx R
bx Q
b0xxxxx P
bx000000000000 O
bx N
bx M
bx L
bx K
bx J
bx I
bx H
xG
bx F
xE
0D
0C
bx B
bx A
bx @
bx ?
bx >
bx =
bx <
bx ;
bx :
bx 9
bx 8
b1101 7
bx 6
bx 5
bx 4
x3
bx 2
bx 1
bx 0
bx /
bx .
bx -
bx ,
bx +
bx *
bx )
bx (
x'
bx &
bx %
bx $
bx #
1"
0!
$end
#5
0Y
b0 P
b0 T
b0 Z
b0 Q
b0 V
b0 O
b0 N
b0 W
b0 X
b1101111 S
b1110 7
b1110 2"
b1110 E"
b1101111 A
b1101111 U
b1101111 ."
b1101111 6
b1101111 1"
b1101111 I"
b110100 ;
b110100 R
b110100 4"
b111000 3"
0x
b0 #"
03
0'
b0 <
b0 v
b0 ;"
b0 =
b0 w
b0 :"
1!
#10
0!
#15
0r
0s
b0 m
b0 ,"
b0 -"
b0 ,
b0 n
b0 O"
b0 .
b0 p
b0 N"
b110100 z
b110100 *"
b0 y
b0 +"
b0 o
b0 q
b1111 7
b1111 2"
b1111 E"
b10000000000000 T
b11010 Z
b11010 Q
b10000000000000 O
b11010 N
b10 X
b1000001 S
b0 1
b0 `
b0 f
b0 M
b0 [
b0 e
b0 )"
b100 @
b100 ]
b100 h
b1 ?
b1 ^
b1 i
b0 B
b0 \
b0 g
b0 -
b0 c
b0 K"
b0 /
b0 a
b0 J"
b0 (
b0 d
b0 l
b0 )
b0 b
b0 k
b110100 :
b110100 _
b110100 j
b111000 ;
b111000 R
b111000 4"
b111100 3"
b10110101000001 A
b10110101000001 U
b10110101000001 ."
b10110101000001 6
b10110101000001 1"
b10110101000001 I"
1!
#20
0!
#25
b10110 P
b10010111011100110110 T
b11100100100 Z
b11100100100 Q
b11100110110 V
b1110011011010010111000000000000 O
b100 N
b111001 W
b111 X
b0 S
b10000 7
b10000 2"
b10000 E"
b111000 z
b111000 *"
b1110011011010010111001000000000 A
b1110011011010010111001000000000 U
b1110011011010010111001000000000 ."
b1110011011010010111001000000000 6
b1110011011010010111001000000000 1"
b1110011011010010111001000000000 I"
b111100 ;
b111100 R
b111100 4"
b1000000 3"
b111000 :
b111000 _
b111000 j
b100 L
b100 }
b100 6"
b1 K
b1 ~
b1 7"
b0 0
b0 &"
b0 9"
1("
0x
b110100 #"
b0 |
b0 {
b111000 J
b111000 ""
b111000 5"
1G
b110100 I
b110100 $"
b110100 /"
b0 H
b0 %"
b0 0"
1!
#30
0!
#35
bx y
bx +"
bx o
bx q
b111000 %
b111000 t
b111000 W"
b111000 *
b111000 L"
b111000 T"
b0 +
b0 M"
b0 U"
b0 &
b0 u
b0 V"
bx ,
bx n
bx O"
bx .
bx p
bx N"
b111100 z
b111100 *"
b1101 7
b1101 2"
b1101 E"
b10000 P
b111000000010000 T
b1100 Z
b1100 Q
b10000 V
b1000000000111000000000000 O
b1100 N
b0 W
b1100011 S
b1 >
b1 <"
b1 Q"
b0 $
b0 A"
b0 S"
b111000 #
b111000 B"
b111000 P"
0G
b10110 -
b10110 c
b10110 K"
b10010 /
b10010 a
b10010 J"
b10110 (
b10110 d
b10110 l
b10010 )
b10010 b
b10010 k
b111100 :
b111100 _
b111100 j
b1000000 ;
b1000000 R
b1000000 4"
b110100 3"
b1000000000111011001100011 A
b1000000000111011001100011 U
b1000000000111011001100011 ."
b1000000000111011001100011 6
b1000000000111011001100011 1"
b1000000000111011001100011 I"
1!
#40
0!
#45
xr
xs
b0 .
b0 p
b0 N"
b0xx m
b0xx ,"
b0xx -"
b0 P
b0 T
b0 Z
b0 Q
b0 V
b0 O
b0 N
b0 X
b1101111 S
b1110 7
b1110 2"
b1110 E"
b0 q
b1000000 z
b1000000 *"
b1101111 A
b1101111 U
b1101111 ."
b1101111 6
b1101111 1"
b1101111 I"
b110100 ;
b110100 R
b110100 4"
b111000 3"
b10000 -
b10000 c
b10000 K"
b0 /
b0 a
b0 J"
b10000 (
b10000 d
b10000 l
b0 )
b0 b
b0 k
b1000000 :
b1000000 _
b1000000 j
b11 @
b11 ]
b11 h
b111 M
b111 [
b111 e
b111 )"
b1100 B
b1100 \
b1100 g
1!
#50
0!
#55
0r
0s
b0 m
b0 ,"
b0 -"
b0 ,
b0 n
b0 O"
b0 y
b0 +"
b0 o
b110100 z
b110100 *"
b1111 7
b1111 2"
b1111 E"
b10000000000000 T
b11010 Z
b11010 Q
b10000000000000 O
b11010 N
b10 X
b1000001 S
b11 L
b11 }
b11 6"
b0 M
b0 [
b0 e
b0 )"
b100 @
b100 ]
b100 h
b0 B
b0 \
b0 g
b0 -
b0 c
b0 K"
b0 (
b0 d
b0 l
1x
b110100 :
b110100 _
b110100 j
b111000 ;
b111000 R
b111000 4"
b111100 3"
b10110101000001 A
b10110101000001 U
b10110101000001 ."
b10110101000001 6
b10110101000001 1"
b10110101000001 I"
1!
#60
0!
#65
b10110 P
b10010111011100110110 T
b11100100100 Z
b11100100100 Q
b11100110110 V
b1110011011010010111000000000000 O
b100 N
b111001 W
b111 X
b0 S
b10000 7
b10000 2"
b10000 E"
b111000 z
b111000 *"
b1110011011010010111001000000000 A
b1110011011010010111001000000000 U
b1110011011010010111001000000000 ."
b1110011011010010111001000000000 6
b1110011011010010111001000000000 1"
b1110011011010010111001000000000 I"
b111100 ;
b111100 R
b111100 4"
b1000000 3"
0x
b111000 :
b111000 _
b111000 j
b100 L
b100 }
b100 6"
1G
1!
#70
0!
#75
bx y
bx +"
bx o
bx q
bx ,
bx n
bx O"
bx .
bx p
bx N"
b111100 z
b111100 *"
b1101 7
b1101 2"
b1101 E"
b10000 P
b111000000010000 T
b1100 Z
b1100 Q
b10000 V
b1000000000111000000000000 O
b1100 N
b0 W
b1100011 S
0G
b10110 -
b10110 c
b10110 K"
b10010 /
b10010 a
b10010 J"
b10110 (
b10110 d
b10110 l
b10010 )
b10010 b
b10010 k
b111100 :
b111100 _
b111100 j
b1000000 ;
b1000000 R
b1000000 4"
b110100 3"
b1000000000111011001100011 A
b1000000000111011001100011 U
b1000000000111011001100011 ."
b1000000000111011001100011 6
b1000000000111011001100011 1"
b1000000000111011001100011 I"
1!
#80
0!
#85
xr
xs
b0 .
b0 p
b0 N"
b0xx m
b0xx ,"
b0xx -"
b0 P
b0 T
b0 Z
b0 Q
b0 V
b0 O
b0 N
b0 X
b1101111 S
b1110 7
b1110 2"
b1110 E"
b0 q
b1000000 z
b1000000 *"
b1101111 A
b1101111 U
b1101111 ."
b1101111 6
b1101111 1"
b1101111 I"
b110100 ;
b110100 R
b110100 4"
b111000 3"
b10000 -
b10000 c
b10000 K"
b0 /
b0 a
b0 J"
b10000 (
b10000 d
b10000 l
b0 )
b0 b
b0 k
b1000000 :
b1000000 _
b1000000 j
b11 @
b11 ]
b11 h
b111 M
b111 [
b111 e
b111 )"
b1100 B
b1100 \
b1100 g
1!
#90
0!
#95
0r
0s
b0 m
b0 ,"
b0 -"
b0 ,
b0 n
b0 O"
b0 y
b0 +"
b0 o
b110100 z
b110100 *"
b1111 7
b1111 2"
b1111 E"
b10000000000000 T
b11010 Z
b11010 Q
b10000000000000 O
b11010 N
b10 X
b1000001 S
b11 L
b11 }
b11 6"
b0 M
b0 [
b0 e
b0 )"
b100 @
b100 ]
b100 h
b0 B
b0 \
b0 g
b0 -
b0 c
b0 K"
b0 (
b0 d
b0 l
1x
b110100 :
b110100 _
b110100 j
b111000 ;
b111000 R
b111000 4"
b111100 3"
b10110101000001 A
b10110101000001 U
b10110101000001 ."
b10110101000001 6
b10110101000001 1"
b10110101000001 I"
1!
#100
0!
#105
b10110 P
b10010111011100110110 T
b11100100100 Z
b11100100100 Q
b11100110110 V
b1110011011010010111000000000000 O
b100 N
b111001 W
b111 X
b0 S
b10000 7
b10000 2"
b10000 E"
b111000 z
b111000 *"
b1110011011010010111001000000000 A
b1110011011010010111001000000000 U
b1110011011010010111001000000000 ."
b1110011011010010111001000000000 6
b1110011011010010111001000000000 1"
b1110011011010010111001000000000 I"
b111100 ;
b111100 R
b111100 4"
b1000000 3"
0x
b111000 :
b111000 _
b111000 j
b100 L
b100 }
b100 6"
1G
1!
#110
0!
#115
bx y
bx +"
bx o
bx q
bx ,
bx n
bx O"
bx .
bx p
bx N"
b111100 z
b111100 *"
b1101 7
b1101 2"
b1101 E"
b10000 P
b111000000010000 T
b1100 Z
b1100 Q
b10000 V
b1000000000111000000000000 O
b1100 N
b0 W
b1100011 S
0G
b10110 -
b10110 c
b10110 K"
b10010 /
b10010 a
b10010 J"
b10110 (
b10110 d
b10110 l
b10010 )
b10010 b
b10010 k
b111100 :
b111100 _
b111100 j
b1000000 ;
b1000000 R
b1000000 4"
b110100 3"
b1000000000111011001100011 A
b1000000000111011001100011 U
b1000000000111011001100011 ."
b1000000000111011001100011 6
b1000000000111011001100011 1"
b1000000000111011001100011 I"
1!
#120
0!
#125
xr
xs
b0 .
b0 p
b0 N"
b0xx m
b0xx ,"
b0xx -"
b0 P
b0 T
b0 Z
b0 Q
b0 V
b0 O
b0 N
b0 X
b1101111 S
b1110 7
b1110 2"
b1110 E"
b0 q
b1000000 z
b1000000 *"
b1101111 A
b1101111 U
b1101111 ."
b1101111 6
b1101111 1"
b1101111 I"
b110100 ;
b110100 R
b110100 4"
b111000 3"
b10000 -
b10000 c
b10000 K"
b0 /
b0 a
b0 J"
b10000 (
b10000 d
b10000 l
b0 )
b0 b
b0 k
b1000000 :
b1000000 _
b1000000 j
b11 @
b11 ]
b11 h
b111 M
b111 [
b111 e
b111 )"
b1100 B
b1100 \
b1100 g
1!
#130
0!
#135
0r
0s
b0 m
b0 ,"
b0 -"
b0 ,
b0 n
b0 O"
b0 y
b0 +"
b0 o
b110100 z
b110100 *"
b1111 7
b1111 2"
b1111 E"
b10000000000000 T
b11010 Z
b11010 Q
b10000000000000 O
b11010 N
b10 X
b1000001 S
b11 L
b11 }
b11 6"
b0 M
b0 [
b0 e
b0 )"
b100 @
b100 ]
b100 h
b0 B
b0 \
b0 g
b0 -
b0 c
b0 K"
b0 (
b0 d
b0 l
1x
b110100 :
b110100 _
b110100 j
b111000 ;
b111000 R
b111000 4"
b111100 3"
b10110101000001 A
b10110101000001 U
b10110101000001 ."
b10110101000001 6
b10110101000001 1"
b10110101000001 I"
1!
#140
0!
#145
b10110 P
b10010111011100110110 T
b11100100100 Z
b11100100100 Q
b11100110110 V
b1110011011010010111000000000000 O
b100 N
b111001 W
b111 X
b0 S
b10000 7
b10000 2"
b10000 E"
b111000 z
b111000 *"
b1110011011010010111001000000000 A
b1110011011010010111001000000000 U
b1110011011010010111001000000000 ."
b1110011011010010111001000000000 6
b1110011011010010111001000000000 1"
b1110011011010010111001000000000 I"
b111100 ;
b111100 R
b111100 4"
b1000000 3"
0x
b111000 :
b111000 _
b111000 j
b100 L
b100 }
b100 6"
1G
1!
#150
0!
#155
bx y
bx +"
bx o
bx q
bx ,
bx n
bx O"
bx .
bx p
bx N"
b111100 z
b111100 *"
b1101 7
b1101 2"
b1101 E"
b10000 P
b111000000010000 T
b1100 Z
b1100 Q
b10000 V
b1000000000111000000000000 O
b1100 N
b0 W
b1100011 S
0G
b10110 -
b10110 c
b10110 K"
b10010 /
b10010 a
b10010 J"
b10110 (
b10110 d
b10110 l
b10010 )
b10010 b
b10010 k
b111100 :
b111100 _
b111100 j
b1000000 ;
b1000000 R
b1000000 4"
b110100 3"
b1000000000111011001100011 A
b1000000000111011001100011 U
b1000000000111011001100011 ."
b1000000000111011001100011 6
b1000000000111011001100011 1"
b1000000000111011001100011 I"
1!
#160
0!
#165
xr
xs
b0 .
b0 p
b0 N"
b0xx m
b0xx ,"
b0xx -"
b0 P
b0 T
b0 Z
b0 Q
b0 V
b0 O
b0 N
b0 X
b1101111 S
b1110 7
b1110 2"
b1110 E"
b0 q
b1000000 z
b1000000 *"
b1101111 A
b1101111 U
b1101111 ."
b1101111 6
b1101111 1"
b1101111 I"
b110100 ;
b110100 R
b110100 4"
b111000 3"
b10000 -
b10000 c
b10000 K"
b0 /
b0 a
b0 J"
b10000 (
b10000 d
b10000 l
b0 )
b0 b
b0 k
b1000000 :
b1000000 _
b1000000 j
b11 @
b11 ]
b11 h
b111 M
b111 [
b111 e
b111 )"
b1100 B
b1100 \
b1100 g
1!
#170
0!
#175
0r
0s
b0 m
b0 ,"
b0 -"
b0 ,
b0 n
b0 O"
b0 y
b0 +"
b0 o
b110100 z
b110100 *"
b1111 7
b1111 2"
b1111 E"
b10000000000000 T
b11010 Z
b11010 Q
b10000000000000 O
b11010 N
b10 X
b1000001 S
b11 L
b11 }
b11 6"
b0 M
b0 [
b0 e
b0 )"
b100 @
b100 ]
b100 h
b0 B
b0 \
b0 g
b0 -
b0 c
b0 K"
b0 (
b0 d
b0 l
1x
b110100 :
b110100 _
b110100 j
b111000 ;
b111000 R
b111000 4"
b111100 3"
b10110101000001 A
b10110101000001 U
b10110101000001 ."
b10110101000001 6
b10110101000001 1"
b10110101000001 I"
1!
#180
0!
#185
b10110 P
b10010111011100110110 T
b11100100100 Z
b11100100100 Q
b11100110110 V
b1110011011010010111000000000000 O
b100 N
b111001 W
b111 X
b0 S
b10000 7
b10000 2"
b10000 E"
b111000 z
b111000 *"
b1110011011010010111001000000000 A
b1110011011010010111001000000000 U
b1110011011010010111001000000000 ."
b1110011011010010111001000000000 6
b1110011011010010111001000000000 1"
b1110011011010010111001000000000 I"
b111100 ;
b111100 R
b111100 4"
b1000000 3"
0x
b111000 :
b111000 _
b111000 j
b100 L
b100 }
b100 6"
1G
1!
#190
0!
#195
bx y
bx +"
bx o
bx q
bx ,
bx n
bx O"
bx .
bx p
bx N"
b111100 z
b111100 *"
b1101 7
b1101 2"
b1101 E"
b10000 P
b111000000010000 T
b1100 Z
b1100 Q
b10000 V
b1000000000111000000000000 O
b1100 N
b0 W
b1100011 S
0G
b10110 -
b10110 c
b10110 K"
b10010 /
b10010 a
b10010 J"
b10110 (
b10110 d
b10110 l
b10010 )
b10010 b
b10010 k
b111100 :
b111100 _
b111100 j
b1000000 ;
b1000000 R
b1000000 4"
b110100 3"
b1000000000111011001100011 A
b1000000000111011001100011 U
b1000000000111011001100011 ."
b1000000000111011001100011 6
b1000000000111011001100011 1"
b1000000000111011001100011 I"
1!
#200
0!
#205
xr
xs
b0 .
b0 p
b0 N"
b0xx m
b0xx ,"
b0xx -"
b0 P
b0 T
b0 Z
b0 Q
b0 V
b0 O
b0 N
b0 X
b1101111 S
b1110 7
b1110 2"
b1110 E"
b0 q
b1000000 z
b1000000 *"
b1101111 A
b1101111 U
b1101111 ."
b1101111 6
b1101111 1"
b1101111 I"
b110100 ;
b110100 R
b110100 4"
b111000 3"
b10000 -
b10000 c
b10000 K"
b0 /
b0 a
b0 J"
b10000 (
b10000 d
b10000 l
b0 )
b0 b
b0 k
b1000000 :
b1000000 _
b1000000 j
b11 @
b11 ]
b11 h
b111 M
b111 [
b111 e
b111 )"
b1100 B
b1100 \
b1100 g
1!
#210
0!
#215
0r
0s
b0 m
b0 ,"
b0 -"
b0 ,
b0 n
b0 O"
b0 y
b0 +"
b0 o
b110100 z
b110100 *"
b1111 7
b1111 2"
b1111 E"
b10000000000000 T
b11010 Z
b11010 Q
b10000000000000 O
b11010 N
b10 X
b1000001 S
b11 L
b11 }
b11 6"
b0 M
b0 [
b0 e
b0 )"
b100 @
b100 ]
b100 h
b0 B
b0 \
b0 g
b0 -
b0 c
b0 K"
b0 (
b0 d
b0 l
1x
b110100 :
b110100 _
b110100 j
b111000 ;
b111000 R
b111000 4"
b111100 3"
b10110101000001 A
b10110101000001 U
b10110101000001 ."
b10110101000001 6
b10110101000001 1"
b10110101000001 I"
1!
#220
0!
#225
b10110 P
b10010111011100110110 T
b11100100100 Z
b11100100100 Q
b11100110110 V
b1110011011010010111000000000000 O
b100 N
b111001 W
b111 X
b0 S
b10000 7
b10000 2"
b10000 E"
b111000 z
b111000 *"
b1110011011010010111001000000000 A
b1110011011010010111001000000000 U
b1110011011010010111001000000000 ."
b1110011011010010111001000000000 6
b1110011011010010111001000000000 1"
b1110011011010010111001000000000 I"
b111100 ;
b111100 R
b111100 4"
b1000000 3"
0x
b111000 :
b111000 _
b111000 j
b100 L
b100 }
b100 6"
1G
1!
#230
0!
#235
bx y
bx +"
bx o
bx q
bx ,
bx n
bx O"
bx .
bx p
bx N"
b111100 z
b111100 *"
b1101 7
b1101 2"
b1101 E"
b10000 P
b111000000010000 T
b1100 Z
b1100 Q
b10000 V
b1000000000111000000000000 O
b1100 N
b0 W
b1100011 S
0G
b10110 -
b10110 c
b10110 K"
b10010 /
b10010 a
b10010 J"
b10110 (
b10110 d
b10110 l
b10010 )
b10010 b
b10010 k
b111100 :
b111100 _
b111100 j
b1000000 ;
b1000000 R
b1000000 4"
b110100 3"
b1000000000111011001100011 A
b1000000000111011001100011 U
b1000000000111011001100011 ."
b1000000000111011001100011 6
b1000000000111011001100011 1"
b1000000000111011001100011 I"
1!
#240
0!
#245
xr
xs
b0 .
b0 p
b0 N"
b0xx m
b0xx ,"
b0xx -"
b0 P
b0 T
b0 Z
b0 Q
b0 V
b0 O
b0 N
b0 X
b1101111 S
b1110 7
b1110 2"
b1110 E"
b0 q
b1000000 z
b1000000 *"
b1101111 A
b1101111 U
b1101111 ."
b1101111 6
b1101111 1"
b1101111 I"
b110100 ;
b110100 R
b110100 4"
b111000 3"
b10000 -
b10000 c
b10000 K"
b0 /
b0 a
b0 J"
b10000 (
b10000 d
b10000 l
b0 )
b0 b
b0 k
b1000000 :
b1000000 _
b1000000 j
b11 @
b11 ]
b11 h
b111 M
b111 [
b111 e
b111 )"
b1100 B
b1100 \
b1100 g
1!
#250
0!
#255
0r
0s
b0 m
b0 ,"
b0 -"
b0 ,
b0 n
b0 O"
b0 y
b0 +"
b0 o
b110100 z
b110100 *"
b1111 7
b1111 2"
b1111 E"
b10000000000000 T
b11010 Z
b11010 Q
b10000000000000 O
b11010 N
b10 X
b1000001 S
b11 L
b11 }
b11 6"
b0 M
b0 [
b0 e
b0 )"
b100 @
b100 ]
b100 h
b0 B
b0 \
b0 g
b0 -
b0 c
b0 K"
b0 (
b0 d
b0 l
1x
b110100 :
b110100 _
b110100 j
b111000 ;
b111000 R
b111000 4"
b111100 3"
b10110101000001 A
b10110101000001 U
b10110101000001 ."
b10110101000001 6
b10110101000001 1"
b10110101000001 I"
1!
#260
0!
#265
b10110 P
b10010111011100110110 T
b11100100100 Z
b11100100100 Q
b11100110110 V
b1110011011010010111000000000000 O
b100 N
b111001 W
b111 X
b0 S
b10000 7
b10000 2"
b10000 E"
b111000 z
b111000 *"
b1110011011010010111001000000000 A
b1110011011010010111001000000000 U
b1110011011010010111001000000000 ."
b1110011011010010111001000000000 6
b1110011011010010111001000000000 1"
b1110011011010010111001000000000 I"
b111100 ;
b111100 R
b111100 4"
b1000000 3"
0x
b111000 :
b111000 _
b111000 j
b100 L
b100 }
b100 6"
1G
1!
#270
0!
#275
bx y
bx +"
bx o
bx q
bx ,
bx n
bx O"
bx .
bx p
bx N"
b111100 z
b111100 *"
b1101 7
b1101 2"
b1101 E"
b10000 P
b111000000010000 T
b1100 Z
b1100 Q
b10000 V
b1000000000111000000000000 O
b1100 N
b0 W
b1100011 S
0G
b10110 -
b10110 c
b10110 K"
b10010 /
b10010 a
b10010 J"
b10110 (
b10110 d
b10110 l
b10010 )
b10010 b
b10010 k
b111100 :
b111100 _
b111100 j
b1000000 ;
b1000000 R
b1000000 4"
b110100 3"
b1000000000111011001100011 A
b1000000000111011001100011 U
b1000000000111011001100011 ."
b1000000000111011001100011 6
b1000000000111011001100011 1"
b1000000000111011001100011 I"
1!
#280
0!
#285
xr
xs
b0 .
b0 p
b0 N"
b0xx m
b0xx ,"
b0xx -"
b0 P
b0 T
b0 Z
b0 Q
b0 V
b0 O
b0 N
b0 X
b1101111 S
b1110 7
b1110 2"
b1110 E"
b0 q
b1000000 z
b1000000 *"
b1101111 A
b1101111 U
b1101111 ."
b1101111 6
b1101111 1"
b1101111 I"
b110100 ;
b110100 R
b110100 4"
b111000 3"
b10000 -
b10000 c
b10000 K"
b0 /
b0 a
b0 J"
b10000 (
b10000 d
b10000 l
b0 )
b0 b
b0 k
b1000000 :
b1000000 _
b1000000 j
b11 @
b11 ]
b11 h
b111 M
b111 [
b111 e
b111 )"
b1100 B
b1100 \
b1100 g
1!
#290
0!
#295
0r
0s
b0 m
b0 ,"
b0 -"
b0 ,
b0 n
b0 O"
b0 y
b0 +"
b0 o
b110100 z
b110100 *"
b1111 7
b1111 2"
b1111 E"
b10000000000000 T
b11010 Z
b11010 Q
b10000000000000 O
b11010 N
b10 X
b1000001 S
b11 L
b11 }
b11 6"
b0 M
b0 [
b0 e
b0 )"
b100 @
b100 ]
b100 h
b0 B
b0 \
b0 g
b0 -
b0 c
b0 K"
b0 (
b0 d
b0 l
1x
b110100 :
b110100 _
b110100 j
b111000 ;
b111000 R
b111000 4"
b111100 3"
b10110101000001 A
b10110101000001 U
b10110101000001 ."
b10110101000001 6
b10110101000001 1"
b10110101000001 I"
1!
#300
0!
